^C:\USERS\RUDY\SOURCE\REPOS\CONSOLEAPPLICATION2\CONSOLEAPPLICATION2\PCH.CPP
C:\USERS\RUDY\SOURCE\REPOS\CONSOLEAPPLICATION2\CONSOLEAPPLICATION2\DEBUG\CONSOLEAPPLICATION2.PCH
C:\USERS\RUDY\SOURCE\REPOS\CONSOLEAPPLICATION2\CONSOLEAPPLICATION2\DEBUG\VC141.PDB
C:\USERS\RUDY\SOURCE\REPOS\CONSOLEAPPLICATION2\CONSOLEAPPLICATION2\DEBUG\VC141.IDB
C:\USERS\RUDY\SOURCE\REPOS\CONSOLEAPPLICATION2\CONSOLEAPPLICATION2\DEBUG\PCH.OBJ
^C:\USERS\RUDY\SOURCE\REPOS\CONSOLEAPPLICATION2\CONSOLEAPPLICATION2\CONSOLEAPPLICATION2.CPP
C:\USERS\RUDY\SOURCE\REPOS\CONSOLEAPPLICATION2\CONSOLEAPPLICATION2\DEBUG\VC141.PDB
C:\USERS\RUDY\SOURCE\REPOS\CONSOLEAPPLICATION2\CONSOLEAPPLICATION2\DEBUG\VC141.IDB
C:\USERS\RUDY\SOURCE\REPOS\CONSOLEAPPLICATION2\CONSOLEAPPLICATION2\DEBUG\CONSOLEAPPLICATION2.OBJ
^C:\USERS\RUDY\DESKTOP\POLIDEA\HSM\CONSOLEAPPLICATION2\PCH.CPP
C:\USERS\RUDY\DESKTOP\POLIDEA\HSM\CONSOLEAPPLICATION2\DEBUG\CONSOLEAPPLICATION2.PCH
C:\USERS\RUDY\DESKTOP\POLIDEA\HSM\CONSOLEAPPLICATION2\DEBUG\VC141.PDB
C:\USERS\RUDY\DESKTOP\POLIDEA\HSM\CONSOLEAPPLICATION2\DEBUG\VC141.IDB
C:\USERS\RUDY\DESKTOP\POLIDEA\HSM\CONSOLEAPPLICATION2\DEBUG\PCH.OBJ
^C:\USERS\RUDY\DESKTOP\POLIDEA\HSM\CONSOLEAPPLICATION2\HSMC.CPP
C:\USERS\RUDY\DESKTOP\POLIDEA\HSM\CONSOLEAPPLICATION2\DEBUG\VC141.PDB
C:\USERS\RUDY\DESKTOP\POLIDEA\HSM\CONSOLEAPPLICATION2\DEBUG\VC141.IDB
C:\USERS\RUDY\DESKTOP\POLIDEA\HSM\CONSOLEAPPLICATION2\DEBUG\HSMC.OBJ
