^C:\USERS\RUDY\SOURCE\REPOS\CONSOLEAPPLICATION2\CONSOLEAPPLICATION2\DEBUG\CONSOLEAPPLICATION2.OBJ|C:\USERS\RUDY\SOURCE\REPOS\CONSOLEAPPLICATION2\CONSOLEAPPLICATION2\DEBUG\PCH.OBJ
F:\WINDOWS KITS\10\LIB\10.0.17763.0\UM\X86\KERNEL32.LIB
F:\WINDOWS KITS\10\LIB\10.0.17763.0\UM\X86\USER32.LIB
F:\WINDOWS KITS\10\LIB\10.0.17763.0\UM\X86\GDI32.LIB
F:\WINDOWS KITS\10\LIB\10.0.17763.0\UM\X86\WINSPOOL.LIB
F:\WINDOWS KITS\10\LIB\10.0.17763.0\UM\X86\COMDLG32.LIB
F:\WINDOWS KITS\10\LIB\10.0.17763.0\UM\X86\ADVAPI32.LIB
F:\WINDOWS KITS\10\LIB\10.0.17763.0\UM\X86\SHELL32.LIB
F:\WINDOWS KITS\10\LIB\10.0.17763.0\UM\X86\OLE32.LIB
F:\WINDOWS KITS\10\LIB\10.0.17763.0\UM\X86\OLEAUT32.LIB
F:\WINDOWS KITS\10\LIB\10.0.17763.0\UM\X86\UUID.LIB
F:\WINDOWS KITS\10\LIB\10.0.17763.0\UM\X86\ODBC32.LIB
F:\WINDOWS KITS\10\LIB\10.0.17763.0\UM\X86\ODBCCP32.LIB
C:\USERS\RUDY\SOURCE\REPOS\CONSOLEAPPLICATION2\CONSOLEAPPLICATION2\DEBUG\CONSOLEAPPLICATION2.OBJ
C:\USERS\RUDY\SOURCE\REPOS\CONSOLEAPPLICATION2\CONSOLEAPPLICATION2\DEBUG\PCH.OBJ
C:\WINDOWS\SYSTEM32\TZRES.DLL
C:\WINDOWS\GLOBALIZATION\SORTING\SORTDEFAULT.NLS
F:\PROGRAMY\VISUAL STUDIO\VC\TOOLS\MSVC\14.16.27023\LIB\X86\MSVCPRTD.LIB
F:\PROGRAMY\VISUAL STUDIO\VC\TOOLS\MSVC\14.16.27023\LIB\X86\MSVCRTD.LIB
F:\PROGRAMY\VISUAL STUDIO\VC\TOOLS\MSVC\14.16.27023\LIB\X86\OLDNAMES.LIB
F:\PROGRAMY\VISUAL STUDIO\VC\TOOLS\MSVC\14.16.27023\LIB\X86\VCRUNTIMED.LIB
F:\WINDOWS KITS\10\LIB\10.0.17763.0\UCRT\X86\UCRTD.LIB
^C:\USERS\RUDY\DESKTOP\POLIDEA\HSM\CONSOLEAPPLICATION2\DEBUG\HSMC.OBJ|C:\USERS\RUDY\DESKTOP\POLIDEA\HSM\CONSOLEAPPLICATION2\DEBUG\PCH.OBJ
F:\WINDOWS KITS\10\LIB\10.0.17763.0\UM\X86\KERNEL32.LIB
F:\WINDOWS KITS\10\LIB\10.0.17763.0\UM\X86\USER32.LIB
F:\WINDOWS KITS\10\LIB\10.0.17763.0\UM\X86\GDI32.LIB
F:\WINDOWS KITS\10\LIB\10.0.17763.0\UM\X86\WINSPOOL.LIB
F:\WINDOWS KITS\10\LIB\10.0.17763.0\UM\X86\COMDLG32.LIB
F:\WINDOWS KITS\10\LIB\10.0.17763.0\UM\X86\ADVAPI32.LIB
F:\WINDOWS KITS\10\LIB\10.0.17763.0\UM\X86\SHELL32.LIB
F:\WINDOWS KITS\10\LIB\10.0.17763.0\UM\X86\OLE32.LIB
F:\WINDOWS KITS\10\LIB\10.0.17763.0\UM\X86\OLEAUT32.LIB
F:\WINDOWS KITS\10\LIB\10.0.17763.0\UM\X86\UUID.LIB
F:\WINDOWS KITS\10\LIB\10.0.17763.0\UM\X86\ODBC32.LIB
F:\WINDOWS KITS\10\LIB\10.0.17763.0\UM\X86\ODBCCP32.LIB
C:\USERS\RUDY\DESKTOP\POLIDEA\HSM\CONSOLEAPPLICATION2\DEBUG\HSMC.OBJ
C:\USERS\RUDY\DESKTOP\POLIDEA\HSM\CONSOLEAPPLICATION2\DEBUG\PCH.OBJ
C:\WINDOWS\SYSTEM32\TZRES.DLL
C:\WINDOWS\GLOBALIZATION\SORTING\SORTDEFAULT.NLS
F:\PROGRAMY\VISUAL STUDIO\VC\TOOLS\MSVC\14.16.27023\LIB\X86\MSVCPRTD.LIB
F:\PROGRAMY\VISUAL STUDIO\VC\TOOLS\MSVC\14.16.27023\LIB\X86\MSVCRTD.LIB
F:\PROGRAMY\VISUAL STUDIO\VC\TOOLS\MSVC\14.16.27023\LIB\X86\OLDNAMES.LIB
F:\PROGRAMY\VISUAL STUDIO\VC\TOOLS\MSVC\14.16.27023\LIB\X86\VCRUNTIMED.LIB
F:\WINDOWS KITS\10\LIB\10.0.17763.0\UCRT\X86\UCRTD.LIB
F:\PROGRAMY\VISUAL STUDIO\VC\TOOLS\MSVC\14.16.27023\BIN\HOSTX86\X86\LINK.EXE
F:\WINDOWS KITS\10\BIN\10.0.17763.0\X86\RC.EXE
F:\PROGRAMY\VISUAL STUDIO\VC\TOOLS\MSVC\14.16.27023\BIN\HOSTX86\X86\CVTRES.EXE
